sw/nasm/factorial.vcd
$date
    Mon Oct 24 14:04:25 2022
$end
$version
    MyHDL 0.11
$end
$timescale
    1ns
$end

$scope module factorial $end
$var reg 18 ! instruction $end
$var reg 16 " inMem $end
$var reg 16 # outMem $end
$var reg 15 $ pcount $end
$var reg 15 % addressM $end
$var reg 1 & writeM $end
$var reg 1 ' clk $end
$var reg 1 ( clkMem $end
$var reg 1 ) rst $end
$scope module cpu5 $end
$var reg 1 ) rst $end
$var reg 15 % addressM $end
$var reg 1 ' clk $end
$var reg 16 " inMem $end
$var reg 18 ! instruction $end
$var reg 16 # outMem $end
$var reg 1 * pc_load $end
$var reg 15 $ pcount $end
$var reg 16 + reg_a $end
$var reg 16 , reg_d $end
$var reg 6 - ula_ctr $end
$var reg 1 . ula_ng $end
$var reg 16 / ula_out $end
$var reg 16 0 ula_x $end
$var reg 16 1 ula_y $end
$var reg 1 2 ula_zr $end
$var reg 1 & writeM $end
$scope module ula5 $end
$var reg 16 0 x $end
$var reg 16 1 y $end
$var reg 6 - c $end
$var reg 1 2 zr $end
$var reg 1 . ng $end
$var reg 16 3 zx_out $end
$var reg 16 4 zy_out $end
$var reg 16 5 and_out $end
$var reg 1 6 c_zx $end
$var reg 1 7 c_nx $end
$var reg 1 8 c_zy $end
$var reg 1 9 c_ny $end
$var reg 1 : c_no $end
$var reg 16 ; add_out $end
$var reg 1 < c_f $end
$var reg 16 = mux_out $end
$var reg 16 > no_out $end
$var reg 16 ? nx_out $end
$var reg 16 @ ny_out $end
$var reg 16 / saida $end
$scope module zerador10 $end
$var reg 16 0 a $end
$var reg 16 3 y $end
$var reg 1 6 z $end
$upscope $end
$scope module inversor15 $end
$var reg 16 3 a $end
$var reg 16 ? y $end
$var reg 1 7 z $end
$upscope $end
$scope module zerador11 $end
$var reg 16 1 a $end
$var reg 16 4 y $end
$var reg 1 8 z $end
$upscope $end
$scope module inversor16 $end
$var reg 16 4 a $end
$var reg 16 @ y $end
$var reg 1 9 z $end
$upscope $end
$scope module add165 $end
$var reg 16 ? a $end
$var reg 16 @ b $end
$var reg 16 A out_q $end
$var reg 16 ; q $end
$scope module _a $end
$var reg 1 B _a(0) $end
$var reg 1 C _a(1) $end
$var reg 1 D _a(2) $end
$var reg 1 E _a(3) $end
$var reg 1 F _a(4) $end
$var reg 1 G _a(5) $end
$var reg 1 H _a(6) $end
$var reg 1 I _a(7) $end
$var reg 1 J _a(8) $end
$var reg 1 K _a(9) $end
$var reg 1 L _a(10) $end
$var reg 1 M _a(11) $end
$var reg 1 N _a(12) $end
$var reg 1 O _a(13) $end
$var reg 1 P _a(14) $end
$var reg 1 Q _a(15) $end
$upscope $end
$scope module _b $end
$var reg 1 R _b(0) $end
$var reg 1 S _b(1) $end
$var reg 1 T _b(2) $end
$var reg 1 U _b(3) $end
$var reg 1 V _b(4) $end
$var reg 1 W _b(5) $end
$var reg 1 X _b(6) $end
$var reg 1 Y _b(7) $end
$var reg 1 Z _b(8) $end
$var reg 1 [ _b(9) $end
$var reg 1 \ _b(10) $end
$var reg 1 ] _b(11) $end
$var reg 1 ^ _b(12) $end
$var reg 1 _ _b(13) $end
$var reg 1 ` _b(14) $end
$var reg 1 a _b(15) $end
$upscope $end
$scope module _c $end
$var reg 1 b _c(0) $end
$var reg 1 c _c(1) $end
$var reg 1 d _c(2) $end
$var reg 1 e _c(3) $end
$var reg 1 f _c(4) $end
$var reg 1 g _c(5) $end
$var reg 1 h _c(6) $end
$var reg 1 i _c(7) $end
$var reg 1 j _c(8) $end
$var reg 1 k _c(9) $end
$var reg 1 l _c(10) $end
$var reg 1 m _c(11) $end
$var reg 1 n _c(12) $end
$var reg 1 o _c(13) $end
$var reg 1 p _c(14) $end
$var reg 1 q _c(15) $end
$var reg 1 r _c(16) $end
$upscope $end
$scope module _q $end
$var reg 1 s _q(0) $end
$var reg 1 t _q(1) $end
$var reg 1 u _q(2) $end
$var reg 1 v _q(3) $end
$var reg 1 w _q(4) $end
$var reg 1 x _q(5) $end
$var reg 1 y _q(6) $end
$var reg 1 z _q(7) $end
$var reg 1 { _q(8) $end
$var reg 1 | _q(9) $end
$var reg 1 } _q(10) $end
$var reg 1 ~ _q(11) $end
$var reg 1 "! _q(12) $end
$var reg 1 "" _q(13) $end
$var reg 1 "# _q(14) $end
$var reg 1 "$ _q(15) $end
$upscope $end
$scope module fullAdder80 $end
$var reg 1 B a $end
$var reg 1 R b $end
$var reg 1 b c $end
$var reg 1 s q $end
$var reg 1 "% s1 $end
$var reg 1 c carry $end
$var reg 1 "& s2 $end
$var reg 1 "' s3 $end
$scope module halfAdder160 $end
$var reg 1 B a $end
$var reg 1 R b $end
$var reg 1 "& carry $end
$var reg 1 "% q $end
$upscope $end
$scope module halfAdder161 $end
$var reg 1 b a $end
$var reg 1 "% b $end
$var reg 1 "' carry $end
$var reg 1 s q $end
$upscope $end
$upscope $end
$scope module fullAdder81 $end
$var reg 1 C a $end
$var reg 1 S b $end
$var reg 1 c c $end
$var reg 1 t q $end
$var reg 1 "( s1 $end
$var reg 1 d carry $end
$var reg 1 ") s2 $end
$var reg 1 "* s3 $end
$scope module halfAdder162 $end
$var reg 1 C a $end
$var reg 1 S b $end
$var reg 1 ") carry $end
$var reg 1 "( q $end
$upscope $end
$scope module halfAdder163 $end
$var reg 1 c a $end
$var reg 1 "( b $end
$var reg 1 "* carry $end
$var reg 1 t q $end
$upscope $end
$upscope $end
$scope module fullAdder82 $end
$var reg 1 D a $end
$var reg 1 T b $end
$var reg 1 d c $end
$var reg 1 u q $end
$var reg 1 "+ s1 $end
$var reg 1 e carry $end
$var reg 1 ", s2 $end
$var reg 1 "- s3 $end
$scope module halfAdder164 $end
$var reg 1 D a $end
$var reg 1 T b $end
$var reg 1 ", carry $end
$var reg 1 "+ q $end
$upscope $end
$scope module halfAdder165 $end
$var reg 1 d a $end
$var reg 1 "+ b $end
$var reg 1 "- carry $end
$var reg 1 u q $end
$upscope $end
$upscope $end
$scope module fullAdder83 $end
$var reg 1 E a $end
$var reg 1 U b $end
$var reg 1 e c $end
$var reg 1 v q $end
$var reg 1 ". s1 $end
$var reg 1 f carry $end
$var reg 1 "/ s2 $end
$var reg 1 "0 s3 $end
$scope module halfAdder166 $end
$var reg 1 E a $end
$var reg 1 U b $end
$var reg 1 "/ carry $end
$var reg 1 ". q $end
$upscope $end
$scope module halfAdder167 $end
$var reg 1 e a $end
$var reg 1 ". b $end
$var reg 1 "0 carry $end
$var reg 1 v q $end
$upscope $end
$upscope $end
$scope module fullAdder84 $end
$var reg 1 F a $end
$var reg 1 V b $end
$var reg 1 f c $end
$var reg 1 w q $end
$var reg 1 "1 s1 $end
$var reg 1 g carry $end
$var reg 1 "2 s2 $end
$var reg 1 "3 s3 $end
$scope module halfAdder168 $end
$var reg 1 F a $end
$var reg 1 V b $end
$var reg 1 "2 carry $end
$var reg 1 "1 q $end
$upscope $end
$scope module halfAdder169 $end
$var reg 1 f a $end
$var reg 1 "1 b $end
$var reg 1 "3 carry $end
$var reg 1 w q $end
$upscope $end
$upscope $end
$scope module fullAdder85 $end
$var reg 1 G a $end
$var reg 1 W b $end
$var reg 1 g c $end
$var reg 1 x q $end
$var reg 1 "4 s1 $end
$var reg 1 h carry $end
$var reg 1 "5 s2 $end
$var reg 1 "6 s3 $end
$scope module halfAdder170 $end
$var reg 1 G a $end
$var reg 1 W b $end
$var reg 1 "5 carry $end
$var reg 1 "4 q $end
$upscope $end
$scope module halfAdder171 $end
$var reg 1 g a $end
$var reg 1 "4 b $end
$var reg 1 "6 carry $end
$var reg 1 x q $end
$upscope $end
$upscope $end
$scope module fullAdder86 $end
$var reg 1 H a $end
$var reg 1 X b $end
$var reg 1 h c $end
$var reg 1 y q $end
$var reg 1 "7 s1 $end
$var reg 1 i carry $end
$var reg 1 "8 s2 $end
$var reg 1 "9 s3 $end
$scope module halfAdder172 $end
$var reg 1 H a $end
$var reg 1 X b $end
$var reg 1 "8 carry $end
$var reg 1 "7 q $end
$upscope $end
$scope module halfAdder173 $end
$var reg 1 h a $end
$var reg 1 "7 b $end
$var reg 1 "9 carry $end
$var reg 1 y q $end
$upscope $end
$upscope $end
$scope module fullAdder87 $end
$var reg 1 I a $end
$var reg 1 Y b $end
$var reg 1 i c $end
$var reg 1 z q $end
$var reg 1 ": s1 $end
$var reg 1 j carry $end
$var reg 1 "; s2 $end
$var reg 1 "< s3 $end
$scope module halfAdder174 $end
$var reg 1 I a $end
$var reg 1 Y b $end
$var reg 1 "; carry $end
$var reg 1 ": q $end
$upscope $end
$scope module halfAdder175 $end
$var reg 1 i a $end
$var reg 1 ": b $end
$var reg 1 "< carry $end
$var reg 1 z q $end
$upscope $end
$upscope $end
$scope module fullAdder88 $end
$var reg 1 J a $end
$var reg 1 Z b $end
$var reg 1 j c $end
$var reg 1 { q $end
$var reg 1 "= s1 $end
$var reg 1 k carry $end
$var reg 1 "> s2 $end
$var reg 1 "? s3 $end
$scope module halfAdder176 $end
$var reg 1 J a $end
$var reg 1 Z b $end
$var reg 1 "> carry $end
$var reg 1 "= q $end
$upscope $end
$scope module halfAdder177 $end
$var reg 1 j a $end
$var reg 1 "= b $end
$var reg 1 "? carry $end
$var reg 1 { q $end
$upscope $end
$upscope $end
$scope module fullAdder89 $end
$var reg 1 K a $end
$var reg 1 [ b $end
$var reg 1 k c $end
$var reg 1 | q $end
$var reg 1 "@ s1 $end
$var reg 1 l carry $end
$var reg 1 "A s2 $end
$var reg 1 "B s3 $end
$scope module halfAdder178 $end
$var reg 1 K a $end
$var reg 1 [ b $end
$var reg 1 "A carry $end
$var reg 1 "@ q $end
$upscope $end
$scope module halfAdder179 $end
$var reg 1 k a $end
$var reg 1 "@ b $end
$var reg 1 "B carry $end
$var reg 1 | q $end
$upscope $end
$upscope $end
$scope module fullAdder90 $end
$var reg 1 L a $end
$var reg 1 \ b $end
$var reg 1 l c $end
$var reg 1 } q $end
$var reg 1 "C s1 $end
$var reg 1 m carry $end
$var reg 1 "D s2 $end
$var reg 1 "E s3 $end
$scope module halfAdder180 $end
$var reg 1 L a $end
$var reg 1 \ b $end
$var reg 1 "D carry $end
$var reg 1 "C q $end
$upscope $end
$scope module halfAdder181 $end
$var reg 1 l a $end
$var reg 1 "C b $end
$var reg 1 "E carry $end
$var reg 1 } q $end
$upscope $end
$upscope $end
$scope module fullAdder91 $end
$var reg 1 M a $end
$var reg 1 ] b $end
$var reg 1 m c $end
$var reg 1 ~ q $end
$var reg 1 "F s1 $end
$var reg 1 n carry $end
$var reg 1 "G s2 $end
$var reg 1 "H s3 $end
$scope module halfAdder182 $end
$var reg 1 M a $end
$var reg 1 ] b $end
$var reg 1 "G carry $end
$var reg 1 "F q $end
$upscope $end
$scope module halfAdder183 $end
$var reg 1 m a $end
$var reg 1 "F b $end
$var reg 1 "H carry $end
$var reg 1 ~ q $end
$upscope $end
$upscope $end
$scope module fullAdder92 $end
$var reg 1 N a $end
$var reg 1 ^ b $end
$var reg 1 n c $end
$var reg 1 "! q $end
$var reg 1 "I s1 $end
$var reg 1 o carry $end
$var reg 1 "J s2 $end
$var reg 1 "K s3 $end
$scope module halfAdder184 $end
$var reg 1 N a $end
$var reg 1 ^ b $end
$var reg 1 "J carry $end
$var reg 1 "I q $end
$upscope $end
$scope module halfAdder185 $end
$var reg 1 n a $end
$var reg 1 "I b $end
$var reg 1 "K carry $end
$var reg 1 "! q $end
$upscope $end
$upscope $end
$scope module fullAdder93 $end
$var reg 1 O a $end
$var reg 1 _ b $end
$var reg 1 o c $end
$var reg 1 "" q $end
$var reg 1 "L s1 $end
$var reg 1 p carry $end
$var reg 1 "M s2 $end
$var reg 1 "N s3 $end
$scope module halfAdder186 $end
$var reg 1 O a $end
$var reg 1 _ b $end
$var reg 1 "M carry $end
$var reg 1 "L q $end
$upscope $end
$scope module halfAdder187 $end
$var reg 1 o a $end
$var reg 1 "L b $end
$var reg 1 "N carry $end
$var reg 1 "" q $end
$upscope $end
$upscope $end
$scope module fullAdder94 $end
$var reg 1 P a $end
$var reg 1 ` b $end
$var reg 1 p c $end
$var reg 1 "# q $end
$var reg 1 "O s1 $end
$var reg 1 q carry $end
$var reg 1 "P s2 $end
$var reg 1 "Q s3 $end
$scope module halfAdder188 $end
$var reg 1 P a $end
$var reg 1 ` b $end
$var reg 1 "P carry $end
$var reg 1 "O q $end
$upscope $end
$scope module halfAdder189 $end
$var reg 1 p a $end
$var reg 1 "O b $end
$var reg 1 "Q carry $end
$var reg 1 "# q $end
$upscope $end
$upscope $end
$scope module fullAdder95 $end
$var reg 1 Q a $end
$var reg 1 a b $end
$var reg 1 q c $end
$var reg 1 "$ q $end
$var reg 1 "R s1 $end
$var reg 1 r carry $end
$var reg 1 "S s2 $end
$var reg 1 "T s3 $end
$scope module halfAdder190 $end
$var reg 1 Q a $end
$var reg 1 a b $end
$var reg 1 "S carry $end
$var reg 1 "R q $end
$upscope $end
$scope module halfAdder191 $end
$var reg 1 q a $end
$var reg 1 "R b $end
$var reg 1 "T carry $end
$var reg 1 "$ q $end
$upscope $end
$upscope $end
$upscope $end
$scope module inversor17 $end
$var reg 16 = a $end
$var reg 16 > y $end
$var reg 1 : z $end
$upscope $end
$scope module comparador5 $end
$var reg 16 > a $end
$var reg 1 . ng $end
$var reg 1 2 zr $end
$upscope $end
$upscope $end
$scope module pc5 $end
$var reg 1 ) rst $end
$var reg 1 ' clk $end
$var reg 16 + i $end
$var reg 1 * load $end
$var reg 15 $ output $end
$upscope $end
$upscope $end
$scope module ram_sim5 $end
$var reg 1 ( clk $end
$var reg 15 % addr $end
$var reg 16 # din $end
$var reg 16 " dout $end
$var reg 1 & we $end
$upscope $end
$scope module rom_sim5 $end
$var reg 1 ' clk $end
$var reg 15 $ addr $end
$var reg 18 ! dout $end
$upscope $end
$upscope $end

$enddefinitions $end
$dumpvars
b000000000000000000 !
b0000000000000000 "
b0000000000000000 #
b000000000000000 $
b000000000000000 %
0&
0'
0(
0)
0*
b0000000000000000 +
b0000000000000000 ,
b000000 -
0.
b0000000000000000 /
b0000000000000000 0
b0000000000000000 1
02
b0000000000000000 3
b0000000000000000 4
b0000000000000000 5
06
07
08
09
0:
b0000000000000000 ;
0<
b0000000000000000 =
b0000000000000000 >
b0000000000000000 ?
b0000000000000000 @
b0000000000000000 A
0B
0C
0D
0E
0F
0G
0H
0I
0J
0K
0L
0M
0N
0O
0P
0Q
0R
0S
0T
0U
0V
0W
0X
0Y
0Z
0[
0\
0]
0^
0_
0`
0a
0b
0c
0d
0e
0f
0g
0h
0i
0j
0k
0l
0m
0n
0o
0p
0q
0r
0s
0t
0u
0v
0w
0x
0y
0z
0{
0|
0}
0~
0"!
0""
0"#
0"$
0"%
0"&
0"'
0"(
0")
0"*
0"+
0",
0"-
0".
0"/
0"0
0"1
0"2
0"3
0"4
0"5
0"6
0"7
0"8
0"9
0":
0";
0"<
0"=
0">
0"?
0"@
0"A
0"B
0"C
0"D
0"E
0"F
0"G
0"H
0"I
0"J
0"K
0"L
0"M
0"N
0"O
0"P
0"Q
0"R
0"S
0"T
$end
12
#1
1(
b0000000000000101 "
#2
0(
1'
b000000000000001 $
b000000000000000001 !
#3
1(
#4
0(
0'
#5
1(
#6
0(
1'
b100001100000010000 !
b0000000000000001 +
b000000000000010 $
b000000000000001 %
b110000 -
b0000000000000001 1
b0000000000000001 4
16
17
b1111111111111111 ?
b0000000000000001 @
b0000000000000001 =
1R
1B
1C
1D
1E
1F
1G
1H
1I
1J
1K
1L
1M
1N
1O
1P
1Q
1"R
1"O
1"L
1"I
1"F
1"C
1"@
1"=
1":
1"7
1"4
1"1
1".
1"+
1"(
1"&
b0000000000000001 >
b0000000000000001 /
02
1c
1t
1u
1v
1w
1x
1y
1z
1{
1|
1}
1~
1"!
1""
1"#
1"$
b1111111111111110 A
1"*
0t
b0000000000000001 #
b1111111111111100 A
1d
b1111111111111110 ;
1"-
0u
b1111111111111100 ;
b1111111111111000 A
1e
1"0
0v
b1111111111111000 ;
b1111111111110000 A
1f
1"3
0w
b1111111111110000 ;
b1111111111100000 A
1g
1"6
0x
b1111111111100000 ;
b1111111111000000 A
1h
1"9
0y
b1111111111000000 ;
b1111111110000000 A
1i
1"<
0z
b1111111110000000 ;
b1111111100000000 A
1j
1"?
0{
b1111111100000000 ;
b1111111000000000 A
1k
1"B
0|
b1111111000000000 ;
b1111110000000000 A
1l
1"E
0}
b1111110000000000 ;
b1111100000000000 A
1m
1"H
0~
b1111100000000000 ;
b1111000000000000 A
1n
1"K
0"!
b1111000000000000 ;
b1110000000000000 A
1o
1"N
0""
b1110000000000000 ;
b1100000000000000 A
1p
1"Q
0"#
b1100000000000000 ;
b1000000000000000 A
1q
1"T
0"$
b1000000000000000 ;
b0000000000000000 A
1r
b0000000000000000 ;
#7
1(
b0000000000000000 "
#8
0(
0'
#9
1(
#10
0(
1'
b000000000000011 $
b0000000000000001 ,
b100000011000100000 !
b001100 -
b0000000000000001 0
1&
19
18
07
06
b0000000000000001 3
b0000000000000000 ?
b0000000000000000 4
b1111111111111110 @
b0000000000000000 =
1a
1`
1_
1^
1]
1\
1[
1Z
1Y
1X
1W
1V
1U
1T
1S
0R
b1111111111111111 @
0Q
0P
0O
0N
0M
0L
0K
0J
0I
0H
0G
0F
0E
0D
0C
0B
b0000000000000001 ?
1B
b0000000000000001 =
0"&
1R
b0000000000000000 >
b0000000000000000 /
12
1"&
0c
b0000000000000001 >
02
b0000000000000001 /
0"*
1t
1c
b0000000000000000 #
1"*
0t
b0000000000000010 A
0d
b0000000000000001 #
0"-
1u
b0000000000000010 ;
b0000000000000000 A
1d
1"-
0u
b0000000000000000 ;
b0000000000000100 A
0e
0"0
1v
b0000000000000100 ;
b0000000000000000 A
1e
1"0
0v
b0000000000000000 ;
b0000000000001000 A
0f
0"3
1w
b0000000000001000 ;
b0000000000000000 A
1f
1"3
0w
b0000000000000000 ;
b0000000000010000 A
0g
0"6
1x
b0000000000010000 ;
b0000000000000000 A
1g
1"6
0x
b0000000000000000 ;
b0000000000100000 A
0h
0"9
1y
b0000000000100000 ;
b0000000000000000 A
1h
1"9
0y
b0000000000000000 ;
b0000000001000000 A
0i
0"<
1z
b0000000001000000 ;
b0000000000000000 A
1i
1"<
0z
b0000000000000000 ;
b0000000010000000 A
0j
0"?
1{
b0000000010000000 ;
b0000000000000000 A
1j
1"?
0{
b0000000000000000 ;
b0000000100000000 A
0k
0"B
1|
b0000000100000000 ;
b0000000000000000 A
1k
1"B
0|
b0000000000000000 ;
b0000001000000000 A
0l
0"E
1}
b0000001000000000 ;
b0000000000000000 A
1l
1"E
0}
b0000000000000000 ;
b0000010000000000 A
0m
0"H
1~
b0000010000000000 ;
b0000000000000000 A
1m
1"H
0~
b0000000000000000 ;
b0000100000000000 A
0n
0"K
1"!
b0000100000000000 ;
b0000000000000000 A
1n
1"K
0"!
b0000000000000000 ;
b0001000000000000 A
0o
0"N
1""
b0001000000000000 ;
b0000000000000000 A
1o
1"N
0""
b0000000000000000 ;
b0010000000000000 A
0p
0"Q
1"#
b0010000000000000 ;
b0000000000000000 A
1p
1"Q
0"#
b0000000000000000 ;
b0100000000000000 A
0q
0"T
1"$
b0100000000000000 ;
b0000000000000000 A
1q
1"T
0"$
b0000000000000000 ;
b1000000000000000 A
0r
b1000000000000000 ;
b0000000000000000 A
1r
b0000000000000000 ;
#11
1(
#12
0(
0'
#13
1(
#14
0(
1'
b000000000000000000 !
b000000000000100 $
b000000 -
0&
08
09
b0000000000000000 @
b0000000000000001 4
b0000000000000001 @
b0000000000000000 =
0a
0`
0_
0^
0]
0\
0[
0Z
0Y
0X
0W
0V
0U
0T
0S
0R
0"&
1"%
0"(
0"+
0".
0"1
0"4
0"7
0":
0"=
0"@
0"C
0"F
0"I
0"L
0"O
0"R
b0000000000000000 >
1R
b0000000000000001 =
b0000000000000001 >
1"&
0"%
b0000000000000000 /
12
0"T
1"$
0"Q
1"#
0"N
1""
0"K
1"!
0"H
1~
0"E
1}
0"B
1|
0"?
1{
0"<
1z
0"9
1y
0"6
1x
0"3
1w
0"0
1v
0"-
1u
0"*
1t
1s
0c
0t
b1111111111111111 A
0d
0e
0f
0g
0h
0i
0j
0k
0l
0m
0n
0o
0p
0q
0r
b0000000000000000 #
0s
1c
02
b0000000000000001 /
b0000000000000001 #
1t
b1111111111111100 A
0"$
0"#
0""
0"!
0~
0}
0|
0{
0z
0y
0x
0w
0v
0u
b1111111111111111 ;
b0000000000000010 A
b1111111111111100 ;
b0000000000000010 ;
#15
1(
b0000000000000001 "
#16
0(
0'
#17
1(
#18
0(
1'
b000000000000101 $
b0000000000000000 +
b100011100000010000 !
b110000 -
b000000000000000 %
17
16
b0000000000000000 3
b1111111111111110 ?
b0000000000000000 =
1Q
1P
1O
1N
1M
1L
1K
1J
1I
1H
1G
1F
1E
1D
1C
0B
b1111111111111111 ?
1B
b0000000000000001 =
0"&
1"%
1"(
1"+
1".
1"1
1"4
1"7
1":
1"=
1"@
1"C
1"F
1"I
1"L
1"O
1"R
b0000000000000000 >
b0000000000000000 /
12
1"$
1"#
1""
1"!
1~
1}
1|
1{
1z
1y
1x
1w
1v
1u
1"*
0t
1s
0c
b0000000000000001 >
1"&
0"%
0s
1c
02
b0000000000000001 /
0"*
1t
b1111111111111101 A
1d
b0000000000000000 #
1"-
0u
b1111111111111101 ;
b1111111111111110 A
0d
b0000000000000001 #
1"*
0t
b1111111111111000 A
1d
0"-
1u
b1111111111111110 ;
1e
1"0
0v
b1111111111111100 A
0e
1"-
0u
b1111111111111000 ;
b1111111111110000 A
1e
0"0
1v
b1111111111111100 ;
1f
1"3
0w
b1111111111111000 A
0f
1"0
0v
b1111111111110000 ;
b1111111111100000 A
1f
0"3
1w
b1111111111111000 ;
1g
1"6
0x
b1111111111110000 A
0g
1"3
0w
b1111111111100000 ;
b1111111111000000 A
1g
0"6
1x
b1111111111110000 ;
1h
1"9
0y
b1111111111100000 A
0h
1"6
0x
b1111111111000000 ;
b1111111110000000 A
1h
0"9
1y
b1111111111100000 ;
1i
1"<
0z
b1111111111000000 A
0i
1"9
0y
b1111111110000000 ;
b1111111100000000 A
1i
0"<
1z
b1111111111000000 ;
1j
1"?
0{
b1111111110000000 A
0j
1"<
0z
b1111111100000000 ;
b1111111000000000 A
1j
0"?
1{
b1111111110000000 ;
1k
1"B
0|
b1111111100000000 A
0k
1"?
0{
b1111111000000000 ;
b1111110000000000 A
1k
0"B
1|
b1111111100000000 ;
1l
1"E
0}
b1111111000000000 A
0l
1"B
0|
b1111110000000000 ;
b1111100000000000 A
1l
0"E
1}
b1111111000000000 ;
1m
1"H
0~
b1111110000000000 A
0m
1"E
0}
b1111100000000000 ;
b1111000000000000 A
1m
0"H
1~
b1111110000000000 ;
1n
1"K
0"!
b1111100000000000 A
0n
1"H
0~
b1111000000000000 ;
b1110000000000000 A
1n
0"K
1"!
b1111100000000000 ;
1o
1"N
0""
b1111000000000000 A
0o
1"K
0"!
b1110000000000000 ;
b1100000000000000 A
1o
0"N
1""
b1111000000000000 ;
1p
1"Q
0"#
b1110000000000000 A
0p
1"N
0""
b1100000000000000 ;
b1000000000000000 A
1p
0"Q
1"#
b1110000000000000 ;
1q
1"T
0"$
b1100000000000000 A
0q
1"Q
0"#
b1000000000000000 ;
b0000000000000000 A
1q
0"T
1"$
b1100000000000000 ;
1r
b1000000000000000 A
0r
1"T
0"$
b0000000000000000 ;
b0000000000000000 A
1r
b1000000000000000 ;
b0000000000000000 ;
#19
1(
b0000000000000101 "
b0000000000000101 1
b0000000000000101 4
b0000000000000101 @
b0000000000000101 =
1T
1",
0"+
b0000000000000101 >
b0000000000000101 /
0"-
1u
b0000000000000100 A
b0000000000000101 #
b0000000000000100 ;
#20
0(
0'
#21
1(
#22
0(
1'
b000000000000000010 !
b0000000000000101 ,
b000000000000110 $
b000000 -
b0000000000000000 1
b0000000000000101 0
b0000000000000000 4
06
07
b0000000000000000 ?
b0000000000000101 3
b0000000000000000 @
b0000000000000000 =
0R
0T
b0000000000000101 ?
0Q
0P
0O
0N
0M
0L
0K
0J
0I
0H
0G
0F
0E
0D
0C
0B
0"&
0"(
0",
0".
0"1
0"4
0"7
0":
0"=
0"@
0"C
0"F
0"I
0"L
0"O
0"R
1B
1D
b0000000000000000 >
b0000000000000000 /
12
1"+
1"%
0"T
1"$
0"Q
1"#
0"N
1""
0"K
1"!
0"H
1~
0"E
1}
0"B
1|
0"?
1{
0"<
1z
0"9
1y
0"6
1x
0"3
1w
0"0
1v
0e
0"*
1t
0c
0t
b1111111111111110 A
0d
0v
0f
0g
0h
0i
0j
0k
0l
0m
0n
0o
0p
0q
0r
1s
1"-
0u
b0000000000000000 #
b1111111111110001 A
1e
0"$
0"#
0""
0"!
0~
0}
0|
0{
0z
0y
0x
0w
0"-
1u
b1111111111111110 ;
b0000000000000101 A
0e
1v
b1111111111110001 ;
b0000000000001101 A
0v
b0000000000000101 ;
b0000000000000101 A
b0000000000001101 ;
b0000000000000101 ;
#23
1(
#24
0(
0'
#25
1(
#26
0(
1'
b000000000000111 $
b0000000000000010 +
b100010100110010000 !
b000000000000010 %
b010011 -
b0000000000000101 1
b0000000000000101 4
1:
1<
17
b1111111111111010 ?
b0000000000000101 =
b1111111111111111 >
b0000000000000101 @
b1111111111111111 /
1T
1R
1.
02
b1111111111111010 >
1Q
1P
1O
1N
1M
1L
1K
1J
1I
1H
1G
1F
1E
0D
1C
0B
1"(
1".
1"1
1"4
1"7
1":
1"=
1"@
1"C
1"F
1"I
1"L
1"O
1"R
b1111111111111010 /
b1111111111111111 #
b1111111111111010 #
1"$
1"#
1""
1"!
1~
1}
1|
1{
1z
1y
1x
1w
1v
1t
b1111111111111111 A
b1111111111111111 ;
b1111111111111111 =
b0000000000000000 >
b0000000000000000 /
0.
12
b0000000000000000 #
#27
1(
b0000000000000000 "
b0000000000000000 1
b0000000000000000 4
b0000000000000000 @
0R
0T
0"+
0"%
0s
0u
b1111111111111010 A
b1111111111111010 ;
b1111111111111010 =
b0000000000000101 >
b0000000000000101 /
02
b0000000000000101 #
#28
0(
0'
#29
1(
#30
0(
1'
b000000000000110000 !
b000000000001000 $
b000000 -
b0000000000000010 1
b0000000000000010 4
07
0<
0:
b1111111111111010 >
b0000000000000000 =
b0000000000000101 ?
b0000000000000010 @
b1111111111111010 /
1S
1B
0C
1D
0E
0F
0G
0H
0I
0J
0K
0L
0M
0N
0O
0P
0Q
b0000000000000000 >
1.
0.
12
b0000000000000000 /
0"R
0"O
0"L
0"I
0"F
0"C
0"@
0"=
0":
0"7
0"4
0"1
0".
1"+
1"%
b1111111111111010 #
1s
1u
0v
0w
0x
0y
0z
0{
0|
0}
0~
0"!
0""
0"#
0"$
b0000000000000000 #
b0000000000000111 A
b0000000000000111 ;
#31
1(
#32
0(
0'
#33
1(
#34
0(
1'
b000000000001001 $
b0000000000110000 +
b100000011000000010 !
b001100 -
b0000000000110000 1
1*
b000000000110000 %
b0000000000110000 4
19
18
b0000000000000000 4
b1111111111001111 @
b0000000000000101 =
1R
1T
1U
1X
1Y
1Z
1[
1\
1]
1^
1_
1`
1a
b1111111111111111 @
1W
1V
1"R
1"O
1"L
1"I
1"F
1"C
1"@
1"=
1":
1"7
1".
1",
0"+
1"&
0"%
b0000000000000101 >
b0000000000000101 /
02
0s
1c
0u
1e
1v
1y
1z
1{
1|
1}
1~
1"!
1""
1"#
1"$
1"1
1"4
1x
1w
b1111111111001010 A
1"0
0v
1"*
0t
0*
b0000000000000101 #
b1111111111110000 A
1d
1f
b1111111111001010 ;
1"3
0w
1u
b1111111111110000 ;
b1111111111100100 A
1g
1"6
0x
b1111111111100100 ;
b1111111111000100 A
1h
1"9
0y
b1111111111000100 ;
b1111111110000100 A
1i
1"<
0z
b1111111110000100 ;
b1111111100000100 A
1j
1"?
0{
b1111111100000100 ;
b1111111000000100 A
1k
1"B
0|
b1111111000000100 ;
b1111110000000100 A
1l
1"E
0}
b1111110000000100 ;
b1111100000000100 A
1m
1"H
0~
b1111100000000100 ;
b1111000000000100 A
1n
1"K
0"!
b1111000000000100 ;
b1110000000000100 A
1o
1"N
0""
b1110000000000100 ;
b1100000000000100 A
1p
1"Q
0"#
b1100000000000100 ;
b1000000000000100 A
1q
1"T
0"$
b1000000000000100 ;
b0000000000000100 A
1r
b0000000000000100 ;
#35
1(
#36
0(
0'
#37
1(
