sw/nasm/stringLength.vcd
$date
    Tue Oct 25 07:44:52 2022
$end
$version
    MyHDL 0.11
$end
$timescale
    1ns
$end

$scope module stringLength $end
$var reg 18 ! instruction $end
$var reg 16 " inMem $end
$var reg 16 # outMem $end
$var reg 15 $ pcount $end
$var reg 15 % addressM $end
$var reg 1 & writeM $end
$var reg 1 ' clk $end
$var reg 1 ( clkMem $end
$var reg 1 ) rst $end
$scope module cpu1 $end
$var reg 1 ) rst $end
$var reg 15 % addressM $end
$var reg 1 ' clk $end
$var reg 16 " inMem $end
$var reg 18 ! instruction $end
$var reg 16 # outMem $end
$var reg 1 * pc_load $end
$var reg 15 $ pcount $end
$var reg 16 + reg_a $end
$var reg 16 , reg_d $end
$var reg 6 - ula_ctr $end
$var reg 1 . ula_ng $end
$var reg 16 / ula_out $end
$var reg 16 0 ula_x $end
$var reg 16 1 ula_y $end
$var reg 1 2 ula_zr $end
$var reg 1 & writeM $end
$scope module ula1 $end
$var reg 16 0 x $end
$var reg 16 1 y $end
$var reg 6 - c $end
$var reg 1 2 zr $end
$var reg 1 . ng $end
$var reg 16 3 zx_out $end
$var reg 16 4 zy_out $end
$var reg 16 5 and_out $end
$var reg 1 6 c_zx $end
$var reg 1 7 c_nx $end
$var reg 1 8 c_zy $end
$var reg 1 9 c_ny $end
$var reg 1 : c_no $end
$var reg 16 ; add_out $end
$var reg 1 < c_f $end
$var reg 16 = mux_out $end
$var reg 16 > no_out $end
$var reg 16 ? nx_out $end
$var reg 16 @ ny_out $end
$var reg 16 / saida $end
$scope module zerador2 $end
$var reg 16 0 a $end
$var reg 16 3 y $end
$var reg 1 6 z $end
$upscope $end
$scope module inversor3 $end
$var reg 16 3 a $end
$var reg 16 ? y $end
$var reg 1 7 z $end
$upscope $end
$scope module zerador3 $end
$var reg 16 1 a $end
$var reg 16 4 y $end
$var reg 1 8 z $end
$upscope $end
$scope module inversor4 $end
$var reg 16 4 a $end
$var reg 16 @ y $end
$var reg 1 9 z $end
$upscope $end
$scope module add161 $end
$var reg 16 ? a $end
$var reg 16 @ b $end
$var reg 16 A out_q $end
$var reg 16 ; q $end
$scope module _a $end
$var reg 1 B _a(0) $end
$var reg 1 C _a(1) $end
$var reg 1 D _a(2) $end
$var reg 1 E _a(3) $end
$var reg 1 F _a(4) $end
$var reg 1 G _a(5) $end
$var reg 1 H _a(6) $end
$var reg 1 I _a(7) $end
$var reg 1 J _a(8) $end
$var reg 1 K _a(9) $end
$var reg 1 L _a(10) $end
$var reg 1 M _a(11) $end
$var reg 1 N _a(12) $end
$var reg 1 O _a(13) $end
$var reg 1 P _a(14) $end
$var reg 1 Q _a(15) $end
$upscope $end
$scope module _b $end
$var reg 1 R _b(0) $end
$var reg 1 S _b(1) $end
$var reg 1 T _b(2) $end
$var reg 1 U _b(3) $end
$var reg 1 V _b(4) $end
$var reg 1 W _b(5) $end
$var reg 1 X _b(6) $end
$var reg 1 Y _b(7) $end
$var reg 1 Z _b(8) $end
$var reg 1 [ _b(9) $end
$var reg 1 \ _b(10) $end
$var reg 1 ] _b(11) $end
$var reg 1 ^ _b(12) $end
$var reg 1 _ _b(13) $end
$var reg 1 ` _b(14) $end
$var reg 1 a _b(15) $end
$upscope $end
$scope module _c $end
$var reg 1 b _c(0) $end
$var reg 1 c _c(1) $end
$var reg 1 d _c(2) $end
$var reg 1 e _c(3) $end
$var reg 1 f _c(4) $end
$var reg 1 g _c(5) $end
$var reg 1 h _c(6) $end
$var reg 1 i _c(7) $end
$var reg 1 j _c(8) $end
$var reg 1 k _c(9) $end
$var reg 1 l _c(10) $end
$var reg 1 m _c(11) $end
$var reg 1 n _c(12) $end
$var reg 1 o _c(13) $end
$var reg 1 p _c(14) $end
$var reg 1 q _c(15) $end
$var reg 1 r _c(16) $end
$upscope $end
$scope module _q $end
$var reg 1 s _q(0) $end
$var reg 1 t _q(1) $end
$var reg 1 u _q(2) $end
$var reg 1 v _q(3) $end
$var reg 1 w _q(4) $end
$var reg 1 x _q(5) $end
$var reg 1 y _q(6) $end
$var reg 1 z _q(7) $end
$var reg 1 { _q(8) $end
$var reg 1 | _q(9) $end
$var reg 1 } _q(10) $end
$var reg 1 ~ _q(11) $end
$var reg 1 "! _q(12) $end
$var reg 1 "" _q(13) $end
$var reg 1 "# _q(14) $end
$var reg 1 "$ _q(15) $end
$upscope $end
$scope module fullAdder16 $end
$var reg 1 B a $end
$var reg 1 R b $end
$var reg 1 b c $end
$var reg 1 s q $end
$var reg 1 "% s1 $end
$var reg 1 c carry $end
$var reg 1 "& s2 $end
$var reg 1 "' s3 $end
$scope module halfAdder32 $end
$var reg 1 B a $end
$var reg 1 R b $end
$var reg 1 "& carry $end
$var reg 1 "% q $end
$upscope $end
$scope module halfAdder33 $end
$var reg 1 b a $end
$var reg 1 "% b $end
$var reg 1 "' carry $end
$var reg 1 s q $end
$upscope $end
$upscope $end
$scope module fullAdder17 $end
$var reg 1 C a $end
$var reg 1 S b $end
$var reg 1 c c $end
$var reg 1 t q $end
$var reg 1 "( s1 $end
$var reg 1 d carry $end
$var reg 1 ") s2 $end
$var reg 1 "* s3 $end
$scope module halfAdder34 $end
$var reg 1 C a $end
$var reg 1 S b $end
$var reg 1 ") carry $end
$var reg 1 "( q $end
$upscope $end
$scope module halfAdder35 $end
$var reg 1 c a $end
$var reg 1 "( b $end
$var reg 1 "* carry $end
$var reg 1 t q $end
$upscope $end
$upscope $end
$scope module fullAdder18 $end
$var reg 1 D a $end
$var reg 1 T b $end
$var reg 1 d c $end
$var reg 1 u q $end
$var reg 1 "+ s1 $end
$var reg 1 e carry $end
$var reg 1 ", s2 $end
$var reg 1 "- s3 $end
$scope module halfAdder36 $end
$var reg 1 D a $end
$var reg 1 T b $end
$var reg 1 ", carry $end
$var reg 1 "+ q $end
$upscope $end
$scope module halfAdder37 $end
$var reg 1 d a $end
$var reg 1 "+ b $end
$var reg 1 "- carry $end
$var reg 1 u q $end
$upscope $end
$upscope $end
$scope module fullAdder19 $end
$var reg 1 E a $end
$var reg 1 U b $end
$var reg 1 e c $end
$var reg 1 v q $end
$var reg 1 ". s1 $end
$var reg 1 f carry $end
$var reg 1 "/ s2 $end
$var reg 1 "0 s3 $end
$scope module halfAdder38 $end
$var reg 1 E a $end
$var reg 1 U b $end
$var reg 1 "/ carry $end
$var reg 1 ". q $end
$upscope $end
$scope module halfAdder39 $end
$var reg 1 e a $end
$var reg 1 ". b $end
$var reg 1 "0 carry $end
$var reg 1 v q $end
$upscope $end
$upscope $end
$scope module fullAdder20 $end
$var reg 1 F a $end
$var reg 1 V b $end
$var reg 1 f c $end
$var reg 1 w q $end
$var reg 1 "1 s1 $end
$var reg 1 g carry $end
$var reg 1 "2 s2 $end
$var reg 1 "3 s3 $end
$scope module halfAdder40 $end
$var reg 1 F a $end
$var reg 1 V b $end
$var reg 1 "2 carry $end
$var reg 1 "1 q $end
$upscope $end
$scope module halfAdder41 $end
$var reg 1 f a $end
$var reg 1 "1 b $end
$var reg 1 "3 carry $end
$var reg 1 w q $end
$upscope $end
$upscope $end
$scope module fullAdder21 $end
$var reg 1 G a $end
$var reg 1 W b $end
$var reg 1 g c $end
$var reg 1 x q $end
$var reg 1 "4 s1 $end
$var reg 1 h carry $end
$var reg 1 "5 s2 $end
$var reg 1 "6 s3 $end
$scope module halfAdder42 $end
$var reg 1 G a $end
$var reg 1 W b $end
$var reg 1 "5 carry $end
$var reg 1 "4 q $end
$upscope $end
$scope module halfAdder43 $end
$var reg 1 g a $end
$var reg 1 "4 b $end
$var reg 1 "6 carry $end
$var reg 1 x q $end
$upscope $end
$upscope $end
$scope module fullAdder22 $end
$var reg 1 H a $end
$var reg 1 X b $end
$var reg 1 h c $end
$var reg 1 y q $end
$var reg 1 "7 s1 $end
$var reg 1 i carry $end
$var reg 1 "8 s2 $end
$var reg 1 "9 s3 $end
$scope module halfAdder44 $end
$var reg 1 H a $end
$var reg 1 X b $end
$var reg 1 "8 carry $end
$var reg 1 "7 q $end
$upscope $end
$scope module halfAdder45 $end
$var reg 1 h a $end
$var reg 1 "7 b $end
$var reg 1 "9 carry $end
$var reg 1 y q $end
$upscope $end
$upscope $end
$scope module fullAdder23 $end
$var reg 1 I a $end
$var reg 1 Y b $end
$var reg 1 i c $end
$var reg 1 z q $end
$var reg 1 ": s1 $end
$var reg 1 j carry $end
$var reg 1 "; s2 $end
$var reg 1 "< s3 $end
$scope module halfAdder46 $end
$var reg 1 I a $end
$var reg 1 Y b $end
$var reg 1 "; carry $end
$var reg 1 ": q $end
$upscope $end
$scope module halfAdder47 $end
$var reg 1 i a $end
$var reg 1 ": b $end
$var reg 1 "< carry $end
$var reg 1 z q $end
$upscope $end
$upscope $end
$scope module fullAdder24 $end
$var reg 1 J a $end
$var reg 1 Z b $end
$var reg 1 j c $end
$var reg 1 { q $end
$var reg 1 "= s1 $end
$var reg 1 k carry $end
$var reg 1 "> s2 $end
$var reg 1 "? s3 $end
$scope module halfAdder48 $end
$var reg 1 J a $end
$var reg 1 Z b $end
$var reg 1 "> carry $end
$var reg 1 "= q $end
$upscope $end
$scope module halfAdder49 $end
$var reg 1 j a $end
$var reg 1 "= b $end
$var reg 1 "? carry $end
$var reg 1 { q $end
$upscope $end
$upscope $end
$scope module fullAdder25 $end
$var reg 1 K a $end
$var reg 1 [ b $end
$var reg 1 k c $end
$var reg 1 | q $end
$var reg 1 "@ s1 $end
$var reg 1 l carry $end
$var reg 1 "A s2 $end
$var reg 1 "B s3 $end
$scope module halfAdder50 $end
$var reg 1 K a $end
$var reg 1 [ b $end
$var reg 1 "A carry $end
$var reg 1 "@ q $end
$upscope $end
$scope module halfAdder51 $end
$var reg 1 k a $end
$var reg 1 "@ b $end
$var reg 1 "B carry $end
$var reg 1 | q $end
$upscope $end
$upscope $end
$scope module fullAdder26 $end
$var reg 1 L a $end
$var reg 1 \ b $end
$var reg 1 l c $end
$var reg 1 } q $end
$var reg 1 "C s1 $end
$var reg 1 m carry $end
$var reg 1 "D s2 $end
$var reg 1 "E s3 $end
$scope module halfAdder52 $end
$var reg 1 L a $end
$var reg 1 \ b $end
$var reg 1 "D carry $end
$var reg 1 "C q $end
$upscope $end
$scope module halfAdder53 $end
$var reg 1 l a $end
$var reg 1 "C b $end
$var reg 1 "E carry $end
$var reg 1 } q $end
$upscope $end
$upscope $end
$scope module fullAdder27 $end
$var reg 1 M a $end
$var reg 1 ] b $end
$var reg 1 m c $end
$var reg 1 ~ q $end
$var reg 1 "F s1 $end
$var reg 1 n carry $end
$var reg 1 "G s2 $end
$var reg 1 "H s3 $end
$scope module halfAdder54 $end
$var reg 1 M a $end
$var reg 1 ] b $end
$var reg 1 "G carry $end
$var reg 1 "F q $end
$upscope $end
$scope module halfAdder55 $end
$var reg 1 m a $end
$var reg 1 "F b $end
$var reg 1 "H carry $end
$var reg 1 ~ q $end
$upscope $end
$upscope $end
$scope module fullAdder28 $end
$var reg 1 N a $end
$var reg 1 ^ b $end
$var reg 1 n c $end
$var reg 1 "! q $end
$var reg 1 "I s1 $end
$var reg 1 o carry $end
$var reg 1 "J s2 $end
$var reg 1 "K s3 $end
$scope module halfAdder56 $end
$var reg 1 N a $end
$var reg 1 ^ b $end
$var reg 1 "J carry $end
$var reg 1 "I q $end
$upscope $end
$scope module halfAdder57 $end
$var reg 1 n a $end
$var reg 1 "I b $end
$var reg 1 "K carry $end
$var reg 1 "! q $end
$upscope $end
$upscope $end
$scope module fullAdder29 $end
$var reg 1 O a $end
$var reg 1 _ b $end
$var reg 1 o c $end
$var reg 1 "" q $end
$var reg 1 "L s1 $end
$var reg 1 p carry $end
$var reg 1 "M s2 $end
$var reg 1 "N s3 $end
$scope module halfAdder58 $end
$var reg 1 O a $end
$var reg 1 _ b $end
$var reg 1 "M carry $end
$var reg 1 "L q $end
$upscope $end
$scope module halfAdder59 $end
$var reg 1 o a $end
$var reg 1 "L b $end
$var reg 1 "N carry $end
$var reg 1 "" q $end
$upscope $end
$upscope $end
$scope module fullAdder30 $end
$var reg 1 P a $end
$var reg 1 ` b $end
$var reg 1 p c $end
$var reg 1 "# q $end
$var reg 1 "O s1 $end
$var reg 1 q carry $end
$var reg 1 "P s2 $end
$var reg 1 "Q s3 $end
$scope module halfAdder60 $end
$var reg 1 P a $end
$var reg 1 ` b $end
$var reg 1 "P carry $end
$var reg 1 "O q $end
$upscope $end
$scope module halfAdder61 $end
$var reg 1 p a $end
$var reg 1 "O b $end
$var reg 1 "Q carry $end
$var reg 1 "# q $end
$upscope $end
$upscope $end
$scope module fullAdder31 $end
$var reg 1 Q a $end
$var reg 1 a b $end
$var reg 1 q c $end
$var reg 1 "$ q $end
$var reg 1 "R s1 $end
$var reg 1 r carry $end
$var reg 1 "S s2 $end
$var reg 1 "T s3 $end
$scope module halfAdder62 $end
$var reg 1 Q a $end
$var reg 1 a b $end
$var reg 1 "S carry $end
$var reg 1 "R q $end
$upscope $end
$scope module halfAdder63 $end
$var reg 1 q a $end
$var reg 1 "R b $end
$var reg 1 "T carry $end
$var reg 1 "$ q $end
$upscope $end
$upscope $end
$upscope $end
$scope module inversor5 $end
$var reg 16 = a $end
$var reg 16 > y $end
$var reg 1 : z $end
$upscope $end
$scope module comparador1 $end
$var reg 16 > a $end
$var reg 1 . ng $end
$var reg 1 2 zr $end
$upscope $end
$upscope $end
$scope module pc1 $end
$var reg 1 ) rst $end
$var reg 1 ' clk $end
$var reg 16 + i $end
$var reg 1 * load $end
$var reg 15 $ output $end
$upscope $end
$upscope $end
$scope module ram_sim1 $end
$var reg 1 ( clk $end
$var reg 15 % addr $end
$var reg 16 # din $end
$var reg 16 " dout $end
$var reg 1 & we $end
$upscope $end
$scope module rom_sim1 $end
$var reg 1 ' clk $end
$var reg 15 $ addr $end
$var reg 18 ! dout $end
$upscope $end
$upscope $end

$enddefinitions $end
$dumpvars
b000000000000000000 !
b0000000000000000 "
b0000000000000000 #
b000000000000000 $
b000000000000000 %
0&
0'
0(
0)
0*
b0000000000000000 +
b0000000000000000 ,
b000000 -
0.
b0000000000000000 /
b0000000000000000 0
b0000000000000000 1
02
b0000000000000000 3
b0000000000000000 4
b0000000000000000 5
06
07
08
09
0:
b0000000000000000 ;
0<
b0000000000000000 =
b0000000000000000 >
b0000000000000000 ?
b0000000000000000 @
b0000000000000000 A
0B
0C
0D
0E
0F
0G
0H
0I
0J
0K
0L
0M
0N
0O
0P
0Q
0R
0S
0T
0U
0V
0W
0X
0Y
0Z
0[
0\
0]
0^
0_
0`
0a
0b
0c
0d
0e
0f
0g
0h
0i
0j
0k
0l
0m
0n
0o
0p
0q
0r
0s
0t
0u
0v
0w
0x
0y
0z
0{
0|
0}
0~
0"!
0""
0"#
0"$
0"%
0"&
0"'
0"(
0")
0"*
0"+
0",
0"-
0".
0"/
0"0
0"1
0"2
0"3
0"4
0"5
0"6
0"7
0"8
0"9
0":
0";
0"<
0"=
0">
0"?
0"@
0"A
0"B
0"C
0"D
0"E
0"F
0"G
0"H
0"I
0"J
0"K
0"L
0"M
0"N
0"O
0"P
0"Q
0"R
0"S
0"T
$end
12
#1
1(
#2
0(
1'
b000000000000001 $
b000000000000001000 !
#3
1(
#4
0(
0'
#5
1(
#6
0(
1'
b100001100000010000 !
b0000000000001000 +
b000000000000010 $
b000000000001000 %
b110000 -
b0000000000001000 1
b0000000000001000 4
16
17
b1111111111111111 ?
b0000000000001000 @
b0000000000001000 =
1U
1B
1C
1D
1E
1F
1G
1H
1I
1J
1K
1L
1M
1N
1O
1P
1Q
1"R
1"O
1"L
1"I
1"F
1"C
1"@
1"=
1":
1"7
1"4
1"1
1"/
1"+
1"(
1"%
b0000000000001000 >
b0000000000001000 /
02
1s
1t
1u
1f
1w
1x
1y
1z
1{
1|
1}
1~
1"!
1""
1"#
1"$
b1111111111110111 A
1"3
0w
b0000000000001000 #
b1111111111100111 A
1g
b1111111111110111 ;
1"6
0x
b1111111111100111 ;
b1111111111000111 A
1h
1"9
0y
b1111111111000111 ;
b1111111110000111 A
1i
1"<
0z
b1111111110000111 ;
b1111111100000111 A
1j
1"?
0{
b1111111100000111 ;
b1111111000000111 A
1k
1"B
0|
b1111111000000111 ;
b1111110000000111 A
1l
1"E
0}
b1111110000000111 ;
b1111100000000111 A
1m
1"H
0~
b1111100000000111 ;
b1111000000000111 A
1n
1"K
0"!
b1111000000000111 ;
b1110000000000111 A
1o
1"N
0""
b1110000000000111 ;
b1100000000000111 A
1p
1"Q
0"#
b1100000000000111 ;
b1000000000000111 A
1q
1"T
0"$
b1000000000000111 ;
b0000000000000111 A
1r
b0000000000000111 ;
#7
1(
b0000000001101111 "
#8
0(
0'
#9
1(
#10
0(
1'
b000000000000011 $
b0000000000001000 ,
b000000000000000001 !
b000000 -
b0000000000001000 0
07
06
b0000000000001000 3
b0000000000000000 ?
b0000000000000000 =
0Q
0P
0O
0N
0M
0L
0K
0J
0I
0H
0G
0F
0E
0D
0C
0B
b0000000000001000 ?
1E
b0000000000001000 =
0"%
0"(
0"+
0"/
1".
0"1
0"4
0"7
0":
0"=
0"@
0"C
0"F
0"I
0"L
0"O
0"R
b0000000000000000 >
b0000000000000000 /
12
0"T
1"$
0"Q
1"#
0"N
1""
0"K
1"!
0"H
1~
0"E
1}
0"B
1|
0"?
1{
0"<
1z
0"9
1y
0"6
1x
0"3
1w
1v
0f
0u
0t
0s
b0000000000001000 >
1"/
0".
0v
1f
02
b0000000000001000 /
b1111111111111000 A
0w
0g
0h
0i
0j
0k
0l
0m
0n
0o
0p
0q
0r
b0000000000000000 #
0"$
0"#
0""
0"!
0~
0}
0|
0{
0z
0y
0x
b1111111111100000 A
b1111111111111000 ;
b0000000000001000 #
1w
b0000000000010000 A
b1111111111100000 ;
b0000000000010000 ;
#11
1(
#12
0(
0'
#13
1(
#14
0(
1'
b100000011000100000 !
b0000000000000001 +
b000000000000100 $
b001100 -
b0000000000000001 1
1&
b000000000000001 %
b0000000000000001 4
18
19
b1111111111111110 @
b0000000000000000 4
b1111111111111111 @
1a
1`
1_
1^
1]
1\
1[
1Z
1Y
1X
1W
1V
1T
1S
1"(
1"+
1"1
1"4
1"7
1":
1"=
1"@
1"C
1"F
1"I
1"L
1"O
1"R
1R
1"%
1"$
1"#
1""
1"!
1~
1}
1|
1{
1z
1y
1x
1"3
0w
1u
1t
b1111111111100110 A
1g
1s
b1111111111100111 A
1"6
0x
b1111111111100110 ;
b1111111111000111 A
1h
b1111111111100111 ;
1"9
0y
b1111111111000111 ;
b1111111110000111 A
1i
1"<
0z
b1111111110000111 ;
b1111111100000111 A
1j
1"?
0{
b1111111100000111 ;
b1111111000000111 A
1k
1"B
0|
b1111111000000111 ;
b1111110000000111 A
1l
1"E
0}
b1111110000000111 ;
b1111100000000111 A
1m
1"H
0~
b1111100000000111 ;
b1111000000000111 A
1n
1"K
0"!
b1111000000000111 ;
b1110000000000111 A
1o
1"N
0""
b1110000000000111 ;
b1100000000000111 A
1p
1"Q
0"#
b1100000000000111 ;
b1000000000000111 A
1q
1"T
0"$
b1000000000000111 ;
b0000000000000111 A
1r
b0000000000000111 ;
#15
1(
#16
0(
0'
#17
1(
#18
0(
1'
b000000000000101 $
b000000000000000000 !
0&
b000000 -
09
08
b0000000000000001 4
b0000000000000000 @
b0000000000000000 =
0a
0`
0_
0^
0]
0\
0[
0Z
0Y
0X
0W
0V
0U
0T
0S
0R
b0000000000000001 @
1R
0"%
0"(
0"+
0"/
1".
0"1
0"4
0"7
0":
0"=
0"@
0"C
0"F
0"I
0"L
0"O
0"R
b0000000000000000 >
b0000000000000000 /
12
0"T
1"$
0"Q
1"#
0"N
1""
0"K
1"!
0"H
1~
0"E
1}
0"B
1|
0"?
1{
0"<
1z
0"9
1y
0"6
1x
0"3
1w
1v
0f
0u
0t
0s
1"%
1s
b1111111111111000 A
0w
0g
0h
0i
0j
0k
0l
0m
0n
0o
0p
0q
0r
b0000000000000000 #
0"$
0"#
0""
0"!
0~
0}
0|
0{
0z
0y
0x
b1111111111101001 A
b1111111111111000 ;
b1111111111101001 ;
b0000000000001001 A
b0000000000001001 ;
#19
1(
b0000000000001000 "
#20
0(
0'
#21
1(
#22
0(
1'
b100001010100100000 !
b0000000000000000 +
b000000000000110 $
b101010 -
b0000000000000000 1
1&
b000000000000000 %
b0000000000000000 4
16
18
1<
b0000000000001001 =
b0000000000000000 3
b0000000000000000 @
0R
b0000000000000000 ?
b0000000000001001 >
b0000000000001001 /
02
0E
0"%
0s
0".
b0000000000001001 #
0v
b0000000000001000 A
b0000000000001000 ;
b0000000000000000 A
b0000000000000000 ;
b0000000000001000 =
b0000000000001000 >
b0000000000000000 =
b0000000000000000 >
b0000000000001000 /
b0000000000001000 #
12
b0000000000000000 /
b0000000000000000 #
#23
1(
#24
0(
0'
#25
1(
#26
0(
1'
b000000000000111 $
b000000000000000001 !
b000000 -
0&
0<
08
06
b0000000000001000 3
b0000000000001000 ?
1E
1".
1v
b0000000000001000 A
b0000000000001000 ;
#27
1(
b0000000000000000 "
#28
0(
0'
#29
1(
#30
0(
1'
b100011100000010000 !
b0000000000000001 +
b000000000001000 $
b110000 -
b000000000000001 %
16
17
b1111111111110111 ?
b0000000000000000 3
b1111111111111111 ?
1Q
1P
1O
1N
1M
1L
1K
1J
1I
1H
1G
1F
0E
1D
1C
1B
1"%
1"(
1"+
0".
1"1
1"4
1"7
1":
1"=
1"@
1"C
1"F
1"I
1"L
1"O
1"R
1E
1".
1"$
1"#
1""
1"!
1~
1}
1|
1{
1z
1y
1x
1w
0v
1u
1t
1s
b1111111111110111 A
1v
b1111111111111111 A
b1111111111110111 ;
b1111111111111111 ;
#31
1(
b0000000000001000 "
b0000000000001000 1
b0000000000001000 4
b0000000000001000 @
b0000000000001000 =
1U
1"/
0".
b0000000000001000 >
b0000000000001000 /
02
0v
1f
1"3
0w
b1111111111110111 A
b0000000000001000 #
b1111111111110111 ;
b1111111111100111 A
1g
1"6
0x
b1111111111100111 ;
b1111111111000111 A
1h
1"9
0y
b1111111111000111 ;
b1111111110000111 A
1i
1"<
0z
b1111111110000111 ;
b1111111100000111 A
1j
1"?
0{
b1111111100000111 ;
b1111111000000111 A
1k
1"B
0|
b1111111000000111 ;
b1111110000000111 A
1l
1"E
0}
b1111110000000111 ;
b1111100000000111 A
1m
1"H
0~
b1111100000000111 ;
b1111000000000111 A
1n
1"K
0"!
b1111000000000111 ;
b1110000000000111 A
1o
1"N
0""
b1110000000000111 ;
b1100000000000111 A
1p
1"Q
0"#
b1100000000000111 ;
b1000000000000111 A
1q
1"T
0"$
b1000000000000111 ;
b0000000000000111 A
1r
b0000000000000111 ;
#32
0(
0'
#33
1(
#34
0(
1'
b000000000001001 $
b100000011000001000 !
b001100 -
b0000000000000001 1
b0000000000000001 4
19
18
07
06
b0000000000001000 3
b0000000000000000 ?
b0000000000000000 4
b1111111111111110 @
b0000000000000000 =
1a
1`
1_
1^
1]
1\
1[
1Z
1Y
1X
1W
1V
1T
1S
b1111111111111111 @
0Q
0P
0O
0N
0M
0L
0K
0J
0I
0H
0G
0F
0E
0D
0C
0B
b0000000000001000 ?
1E
b0000000000001000 =
0"%
0"/
1".
1R
b0000000000000000 >
b0000000000000000 /
12
1"%
1v
0f
0s
b0000000000001000 >
1"/
0".
0v
1f
02
b0000000000001000 /
b0000000000001110 A
0"3
1w
1s
b0000000000000000 #
b0000000000010111 A
0g
b0000000000001110 ;
b0000000000001000 #
1"3
0w
b0000000000000111 A
1g
0"6
1x
b0000000000010111 ;
b0000000000100111 A
0h
1"6
0x
b0000000000000111 ;
b0000000000000111 A
1h
0"9
1y
b0000000000100111 ;
b0000000001000111 A
0i
1"9
0y
b0000000000000111 ;
b0000000000000111 A
1i
0"<
1z
b0000000001000111 ;
b0000000010000111 A
0j
1"<
0z
b0000000000000111 ;
b0000000000000111 A
1j
0"?
1{
b0000000010000111 ;
b0000000100000111 A
0k
1"?
0{
b0000000000000111 ;
b0000000000000111 A
1k
0"B
1|
b0000000100000111 ;
b0000001000000111 A
0l
1"B
0|
b0000000000000111 ;
b0000000000000111 A
1l
0"E
1}
b0000001000000111 ;
b0000010000000111 A
0m
1"E
0}
b0000000000000111 ;
b0000000000000111 A
1m
0"H
1~
b0000010000000111 ;
b0000100000000111 A
0n
1"H
0~
b0000000000000111 ;
b0000000000000111 A
1n
0"K
1"!
b0000100000000111 ;
b0001000000000111 A
0o
1"K
0"!
b0000000000000111 ;
b0000000000000111 A
1o
0"N
1""
b0001000000000111 ;
b0010000000000111 A
0p
1"N
0""
b0000000000000111 ;
b0000000000000111 A
1p
0"Q
1"#
b0010000000000111 ;
b0100000000000111 A
0q
1"Q
0"#
b0000000000000111 ;
b0000000000000111 A
1q
0"T
1"$
b0100000000000111 ;
b1000000000000111 A
0r
1"T
0"$
b0000000000000111 ;
b0000000000000111 A
1r
b1000000000000111 ;
b0000000000000111 ;
#35
1(
#36
0(
0'
#37
1(
#38
0(
1'
b100011100000010000 !
b0000000000001000 +
b000000000001010 $
b110000 -
b0000000000001000 1
b000000000001000 %
16
17
08
09
b0000000000000000 @
b0000000000001000 4
b1111111111110111 ?
b0000000000000000 3
b1111111111111111 ?
b0000000000000000 =
1Q
1P
1O
1N
1M
1L
1K
1J
1I
1H
1G
1F
0E
1D
1C
1B
b0000000000001000 @
0a
0`
0_
0^
0]
0\
0[
0Z
0Y
0X
0W
0V
0U
0T
0S
0R
0"/
1U
b0000000000001000 =
b0000000000000000 >
1E
1"/
b0000000000000000 /
12
b0000000000001000 >
0f
0"3
1w
02
b0000000000001000 /
b0000000000000000 #
1f
1"3
0w
b0000000000001000 #
b0000000000010111 A
0g
0"6
1x
b0000000000010111 ;
b0000000000000111 A
1g
1"6
0x
b0000000000000111 ;
b0000000000100111 A
0h
0"9
1y
b0000000000100111 ;
b0000000000000111 A
1h
1"9
0y
b0000000000000111 ;
b0000000001000111 A
0i
0"<
1z
b0000000001000111 ;
b0000000000000111 A
1i
1"<
0z
b0000000000000111 ;
b0000000010000111 A
0j
0"?
1{
b0000000010000111 ;
b0000000000000111 A
1j
1"?
0{
b0000000000000111 ;
b0000000100000111 A
0k
0"B
1|
b0000000100000111 ;
b0000000000000111 A
1k
1"B
0|
b0000000000000111 ;
b0000001000000111 A
0l
0"E
1}
b0000001000000111 ;
b0000000000000111 A
1l
1"E
0}
b0000000000000111 ;
b0000010000000111 A
0m
0"H
1~
b0000010000000111 ;
b0000000000000111 A
1m
1"H
0~
b0000000000000111 ;
b0000100000000111 A
0n
0"K
1"!
b0000100000000111 ;
b0000000000000111 A
1n
1"K
0"!
b0000000000000111 ;
b0001000000000111 A
0o
0"N
1""
b0001000000000111 ;
b0000000000000111 A
1o
1"N
0""
b0000000000000111 ;
b0010000000000111 A
0p
0"Q
1"#
b0010000000000111 ;
b0000000000000111 A
1p
1"Q
0"#
b0000000000000111 ;
b0100000000000111 A
0q
0"T
1"$
b0100000000000111 ;
b0000000000000111 A
1q
1"T
0"$
b0000000000000111 ;
b1000000000000111 A
0r
b1000000000000111 ;
b0000000000000111 A
1r
b0000000000000111 ;
#39
1(
b0000000001101111 "
b0000000001101111 1
b0000000001101111 4
b0000000001101111 @
b0000000001101111 =
1X
1W
1T
1S
1R
1"&
0"%
1")
0"(
1",
0"+
1"5
0"4
1"8
0"7
b0000000001101111 >
b0000000001101111 /
0"9
1y
0"6
1x
0u
1e
0t
1d
0s
1c
1t
b0000000001100000 A
1u
1v
b0000000001101111 #
b0000000001101110 A
b0000000001100000 ;
b0000000001101110 ;
#40
0(
0'
#41
1(
#42
0(
1'
b000000000001011 $
b0000000001101111 ,
b000000000000010110 !
b000000 -
b0000000000001000 1
b0000000001101111 0
b0000000000001000 4
07
06
b0000000001101111 3
b0000000000000000 ?
b0000000000001000 @
b0000000000000000 =
0R
0S
0T
0W
0X
0Q
0P
0O
0N
0M
0L
0K
0J
0I
0H
0G
0F
0E
0D
0C
0B
b0000000001101111 ?
1B
1C
1D
1E
1G
1H
b0000000000001000 =
0"&
0")
0",
0"/
1".
0"1
0"5
0"8
0":
0"=
0"@
0"C
0"F
0"I
0"L
0"O
0"R
b0000000000000000 >
b0000000000000000 /
12
0"T
1"$
0"Q
1"#
0"N
1""
0"K
1"!
0"H
1~
0"E
1}
0"B
1|
0"?
1{
0"<
1z
0i
0h
0"3
1w
1"0
0v
0f
0e
0d
0c
b0000000000001000 >
1"7
1"4
1"/
0".
1"+
1"(
1"%
1s
0"0
1f
1"6
0x
02
b0000000000001000 /
0w
b1111111111110110 A
0g
0z
0j
0k
0l
0m
0n
0o
0p
0q
0r
b0000000000000000 #
0"$
0"#
0""
0"!
0~
0}
0|
0{
b1111111101000111 A
0"6
1x
b1111111111110110 ;
b0000000000001000 #
1h
1w
b0000000001110111 A
1"9
0y
0h
b1111111101000111 ;
0"9
1y
b0000000000110111 A
1i
b0000000001110111 ;
1z
b0000000000110111 ;
b0000000001110111 A
0i
0z
b0000000001110111 ;
b0000000011110111 A
b0000000011110111 ;
b0000000001110111 A
b0000000001110111 ;
#43
1(
#44
0(
0'
#45
1(
